{"items":[{"name":"YMCA Dining Hall","code":"delhi-ncr\/ymca-dining-hall-connaught-place-cp-central-delhi-644141","image":"https:\/\/static.eazydiner.com\/testing\/\/resized\/818X450\/restaurant\/644141\/restaurant220170510102030.jpg","location":"Connaught Place (CP), Central Delhi","lat":28.626356,"lng":77.211851,"cost_for_two":"\u20b9 500 for two approx.","currency":" \u20b9","bookable":true,"cuisines":"Multicuisine","deal":{"id":3579,"title":"Enjoy 10% off on food bill","prepaid":false,"type":"alacarte","subtype":null,"icon":"","label":{"text":"DEAL","bg-color":"0,168,73,1","logo":"https:\/\/static.eazydiner.com\/testing\/\/resized\/falseXfalse\/deals\/icons\/deal_tag.png"}},"critic_review":{"name":"Phantom","rating":3.2},"user_reviews":{"count":1,"avg_rating":3,"rating_image_url":"http:\/\/www.tripadvisor.com\/img\/cdsi\/img2\/ratings\/traveler\/3.0-42608-5.svg"},"timings":null,"award":null,"distance":null},{"name":"Rajdhani Thali Restaurant","code":"delhi-ncr\/rajdhani-thali-restaurant-connaught-place-110062","image":"https:\/\/static.eazydiner.com\/testing\/\/resized\/818X450\/restaurant\/110062\/restaurant220180518122911.jpg","location":"Connaught Place (CP), Central Delhi","lat":28.63089943,"lng":77.21640015,"cost_for_two":"\u20b9 950 for two approx.","currency":" \u20b9","bookable":true,"cuisines":"Gujarati, Regional Indian","deal":{"id":13367,"title":"Rajasthani thali @ Rs.376 AI per person (Mon,Wed - Fri)","prepaid":true,"type":"qsr","subtype":null,"price":376,"actual_price":515,"amount_suffix":"(All Including)","icon":"","label":{"text":"PREPAID DEAL","bg-color":"0,168,73,1","logo":"https:\/\/static.eazydiner.com\/testing\/\/resized\/falseXfalse\/deals\/icons\/prepaid_deal_tag.png"}},"more_deals":"+ 1 more Deal","critic_review":{"name":"Phantom","rating":3.9},"user_reviews":null,"timings":null,"award":null,"chain":{"text":"View All Outlets","code":"chains=rajdhani-thali-restaurant"},"distance":null},{"name":"Chaayos","code":"delhi-ncr\/chaayos-connaught-place-cp-central-delhi-652627","image":"https:\/\/static.eazydiner.com\/testing\/\/resized\/818X450\/restaurant\/652627\/restaurant120180109111728.jpeg","location":"Connaught Place (CP), Central Delhi","lat":28.631451,"lng":77.216667,"cost_for_two":"\u20b9 500 for two approx.","currency":" \u20b9","bookable":true,"cuisines":"Cafe","deal":{"id":20893,"title":"50% off on Total Bill","prepaid":true,"type":"qsr","subtype":"eatout","price":25,"actual_price":null,"amount_suffix":"(All Including)","icon":"","label":{"text":"EAT OUT FESTIVAL","bg-color":"255,147,0,1","logo":"https:\/\/static.eazydiner.com\/testing\/\/resized\/falseXfalse\/eatout\/logo\/super_saver_logo_new.png"},"left_count":10,"rules":[{"name":"sale_allowed_a_day","operator":"<=","value":"5"},{"name":"purchase_allowed_a_day_customer","operator":"==","value":"1"}],"eatout":{"is_prime":false,"actual_price":null,"price":25,"rem_deal":"5 coupons left for Dinner","rem_deal_count":5,"price_rule":"Coupon fee per person","is_soldout":false}},"critic_review":{"name":"Phantom","rating":4},"user_reviews":{"count":111,"avg_rating":4,"rating_image_url":"http:\/\/www.tripadvisor.com\/img\/cdsi\/img2\/ratings\/traveler\/4.0-42608-5.svg"},"timings":null,"award":null,"chain":{"text":"View All Outlets","code":"chains=chaayos"},"distance":null},{"name":"Lord of the Drinks","code":"delhi-ncr\/lord-of-the-drinks-connaught-place-121379","image":"https:\/\/static.eazydiner.com\/testing\/\/resized\/818X450\/restaurant\/121379\/restaurant220160521112934.jpg","location":"Connaught Place (CP), Central Delhi","lat":28.631849,"lng":77.216913,"cost_for_two":"\u20b9 1800 for two approx.","currency":" \u20b9","bookable":true,"cuisines":"Cocktail Menu, Multicuisine","deal":{"id":10620,"title":"Upload your bill and get 15% cash back in your EazyDiner wallet","prepaid":false,"type":"alacarte","subtype":"null","icon":"","label":{"text":"DEAL","bg-color":"0,168,73,1","logo":"https:\/\/static.eazydiner.com\/testing\/\/resized\/falseXfalse\/deals\/icons\/deal_tag.png"}},"more_deals":"+ 3 more Deals","critic_review":{"name":"Sharmila Chand","rating":3.9},"user_reviews":{"count":316,"avg_rating":4,"rating_image_url":"http:\/\/www.tripadvisor.com\/img\/cdsi\/img2\/ratings\/traveler\/4.0-42608-5.svg"},"timings":null,"award":null,"chain":{"text":"View All Outlets","code":"chains=lord-of-the-drinks-delhi-ncr"},"distance":null},{"name":"China Garden","code":"delhi-ncr\/china-garden-connaught-place-110741","image":"https:\/\/static.eazydiner.com\/testing\/\/resized\/818X450\/restaurant\/110741\/restaurant020161207123851.jpg","location":"Connaught Place (CP), Central Delhi","lat":28.633916,"lng":77.217239,"cost_for_two":"\u20b9 1500 for two approx.","currency":" \u20b9","bookable":true,"cuisines":"Chinese","deal":{"id":10620,"title":"Upload your bill and get 15% cash back in your EazyDiner wallet","prepaid":false,"type":"alacarte","subtype":"null","icon":"","label":{"text":"DEAL","bg-color":"0,168,73,1","logo":"https:\/\/static.eazydiner.com\/testing\/\/resized\/falseXfalse\/deals\/icons\/deal_tag.png"}},"critic_review":{"name":"Susmita Saha","rating":3.4},"user_reviews":{"count":45,"avg_rating":4,"rating_image_url":"http:\/\/www.tripadvisor.com\/img\/cdsi\/img2\/ratings\/traveler\/4.0-42608-5.svg"},"timings":null,"award":null,"chain":{"text":"View All Outlets","code":"chains=china-garden-delhi-ncr"},"distance":null},{"name":"Fresc Co","code":"delhi-ncr\/fresc-co-janpath-110113","image":"https:\/\/static.eazydiner.com\/testing\/\/resized\/818X450\/restaurant\/110113\/Restaurant_Main+Photo-01.jpg","location":"Janpath, Central Delhi","lat":28.62821,"lng":77.219688,"cost_for_two":"\u20b9 1900 for two approx.","currency":" \u20b9","bookable":true,"cuisines":"Mediterranean","deal":{"id":281,"title":"Enjoy 15% off on food bill","prepaid":false,"type":"alacarte","subtype":null,"icon":"","label":{"text":"DEAL","bg-color":"0,168,73,1","logo":"https:\/\/static.eazydiner.com\/testing\/\/resized\/falseXfalse\/deals\/icons\/deal_tag.png"}},"critic_review":{"name":"Vir Sanghvi","rating":3.3},"user_reviews":{"count":117,"avg_rating":4,"rating_image_url":"http:\/\/www.tripadvisor.com\/img\/cdsi\/img2\/ratings\/traveler\/4.0-42608-5.svg"},"timings":null,"award":null,"chain":{"text":"View All Outlets","code":"chains=fresc-co"},"distance":null},{"name":"Burger King","code":"delhi-ncr\/burger-king-connaught-place-121192","image":"https:\/\/static.eazydiner.com\/testing\/\/resized\/818X450\/restaurant\/121192\/restaurant320180122095943.png","location":"Connaught Place (CP), Central Delhi","lat":28.63260078,"lng":77.21849823,"cost_for_two":"\u20b9 500 for two approx.","currency":" \u20b9","bookable":true,"cuisines":"Fast Food","deal":{"id":20537,"title":"2 Veg Whoppers + 2 Sundaes + 1 Cheesy Fries + 2 Regular Pepsi","prepaid":true,"type":"qsr","subtype":null,"price":349,"actual_price":517,"amount_suffix":"(All Including)","icon":"","label":{"text":"PREPAID DEAL","bg-color":"0,168,73,1","logo":"https:\/\/static.eazydiner.com\/testing\/\/resized\/falseXfalse\/deals\/icons\/prepaid_deal_tag.png"}},"more_deals":"+ 1 more Deal","critic_review":{"name":"Vir Sanghvi","rating":4},"user_reviews":null,"timings":null,"award":null,"chain":{"text":"View All Outlets","code":"chains=burger-king-delhi-ncr"},"distance":null},{"name":"The Beer Cafe","code":"delhi-ncr\/the-beer-cafe-connaught-place-110051","image":"https:\/\/static.eazydiner.com\/testing\/\/resized\/818X450\/restaurant\/110051\/restaurant120170613101818.jpg","location":"Janpath, Central Delhi","lat":28.629144,"lng":77.219817,"cost_for_two":"\u20b9 1800 for two approx.","currency":" \u20b9","bookable":true,"cuisines":"Multicuisine","deal":{"id":10620,"title":"Upload your bill and get 15% cash back in your EazyDiner wallet","prepaid":false,"type":"alacarte","subtype":"null","icon":"","label":{"text":"DEAL","bg-color":"0,168,73,1","logo":"https:\/\/static.eazydiner.com\/testing\/\/resized\/falseXfalse\/deals\/icons\/deal_tag.png"}},"more_deals":"+ 1 more Deal","critic_review":{"name":"Phantom","rating":3},"user_reviews":{"count":105,"avg_rating":3.5,"rating_image_url":"http:\/\/www.tripadvisor.com\/img\/cdsi\/img2\/ratings\/traveler\/3.5-42608-5.svg"},"timings":null,"award":null,"chain":{"text":"View All Outlets","code":"chains=the_beer_cafe"},"distance":null},{"name":"Wok to Walk","code":"delhi-ncr\/wok-to-walk-connaught-place-cp-central-delhi-653373","image":"https:\/\/static.eazydiner.com\/testing\/\/resized\/818X450\/restaurant\/653373\/restaurant020180419101854.jpg","location":"Connaught Place (CP), Central Delhi","lat":28.629746,"lng":77.220416,"cost_for_two":"\u20b9 700 for two approx.","currency":" \u20b9","bookable":true,"cuisines":"Pan Asian","deal":{"id":10620,"title":"Upload your bill and get 15% cash back in your EazyDiner wallet","prepaid":false,"type":"alacarte","subtype":"null","icon":"","label":{"text":"DEAL","bg-color":"0,168,73,1","logo":"https:\/\/static.eazydiner.com\/testing\/\/resized\/falseXfalse\/deals\/icons\/deal_tag.png"}},"critic_review":{"name":"Phantom","rating":3.9},"user_reviews":null,"timings":null,"award":null,"chain":{"text":"View All Outlets","code":"chains=wok-to-walk-delhi-ncr"},"distance":null},{"name":"The Junkyard Cafe","code":"delhi-ncr\/the-junkyard-cafe-connaught-place-121497","image":"https:\/\/static.eazydiner.com\/testing\/\/resized\/818X450\/restaurant\/121497\/6223_2-01.jpg","location":"Connaught Place (CP), Central Delhi","lat":28.63026,"lng":77.220422,"cost_for_two":"\u20b9 1800 for two approx.","currency":" \u20b9","bookable":true,"cuisines":"Finger Food, Casual Eclectic","deal":{"id":21324,"title":"Enjoy 20% off on food & beverage including alcohol","prime":{"title":"Enjoy 25% off on food & beverage including alcohol","exclusive":"PRIME EXCLUSIVE"},"prepaid":false,"type":"alacarte","subtype":null,"icon":"","label":{"text":"PRIME EXCLUSIVE","bg-color":"255,19,0,1","logo":"https:\/\/static.eazydiner.com\/testing\/\/resized\/falseXfalse\/subscriptions\/prime\/primeexclusivenew.png"}},"more_deals":"+ 2 more Deals","critic_review":{"name":"Phantom","rating":3.8},"user_reviews":{"count":176,"avg_rating":4,"rating_image_url":"http:\/\/www.tripadvisor.com\/img\/cdsi\/img2\/ratings\/traveler\/4.0-42608-5.svg"},"timings":null,"award":null,"chain":{"text":"View All Outlets","code":"chains=the-junkyard-cafe-delhi-ncr"},"distance":null}],"links":{"first":"https:\/\/ns-dev.eazydiner.com\/4.3\/restaurants?date=2018-11-10&meal_period=dinner&pax=1&location=delhi-ncr&total=85&page=1","last":"https:\/\/ns-dev.eazydiner.com\/4.3\/restaurants?date=2018-11-10&meal_period=dinner&pax=1&location=delhi-ncr&total=85&page=9","prev":null,"next":"https:\/\/ns-dev.eazydiner.com\/4.3\/restaurants?date=2018-11-10&meal_period=dinner&pax=1&location=delhi-ncr&total=85&page=2"},"meta":{"current_page":1,"from":1,"last_page":9,"path":"https:\/\/ns-dev.eazydiner.com\/4.3\/restaurants","per_page":10,"to":10,"total":85},"sort":[{"code":"popularity","name":"Popularity"},{"code":"default","name":"Distance: Nearest first"},{"code":"critic_review_rating-desc","name":"Rating: High to Low"},{"code":"cost-desc","name":"Price: High to Low"},{"code":"cost-asc","name":"Price: Low to High"}],"filters":{"eatout":[{"code":"eatout","name":"Super Saver Deals","text":"Interested in Super Saver Deals","icon":"https:\/\/static.eazydiner.com\/testing\/\/resized\/falseXfalse\/eatout\/logo\/super_saver_logo_new.png"}],"prepaid":[{"code":"eazysave-deals","name":"Prepaid deals","text":"Show Prepaid Deals","icon":"https:\/\/static.eazydiner.com\/testing\/resized\/70X70\/deals\/app-icons\/prepaid-icon.png"}],"prime":[{"code":"prime","name":"Prime deals","text":"Show Restaurants with Prime Deals","icon":"https:\/\/static.eazydiner.com\/testing\/\/resized\/falseXfalse\/subscriptions\/prime\/prime_tag.png"}],"deal_types":[{"code":"set menu","name":"Set Menu","text":"Get discounts on a fixed menu.","icon":"https:\/\/static.eazydiner.com\/testing\/resized\/70X70\/deals\/app-icons\/set_menu.png"},{"code":"alacarte","name":"A`la carte","text":"Order individual dishes from menu. ","icon":"https:\/\/static.eazydiner.com\/testing\/resized\/70X70\/deals\/app-icons\/alacarte.png"},{"code":"buffet","name":"Buffet","text":"Diners generally serve themselves.","icon":"https:\/\/static.eazydiner.com\/testing\/resized\/70X70\/deals\/app-icons\/buffet.png"}],"buckets":[{"code":"eazysave-deals","count":438,"name":"EazySave Deals"},{"code":"fifteen-percent-discounts","count":359,"name":"15% Discount"},{"code":"twenty-five-percent-discounts","count":251,"name":"25% Discount"},{"code":"twenty-percent-discounts","count":218,"name":"20% Discount"},{"code":"ten-percent-discounts","count":165,"name":"10% Discount"},{"code":"fifty-percent-discounts","count":124,"name":"Mindblowing 50% Discount"},{"code":"free-beverages","count":45,"name":"Free Beverages"},{"code":"free-cocktail-or-mocktail","count":32,"name":"Free Cocktail or Mocktail"},{"code":"free-dessert","count":22,"name":"Free Dessert"},{"code":"thirty-percent-discounts","count":22,"name":"30% Discount"},{"code":"free-glass-of-wine","count":14,"name":"Free Glass of Wine"},{"code":"other-offers","count":12,"name":"Other Offers"},{"code":"free-main-course","count":10,"name":"Free Main Course"},{"code":"free-appetizer","count":9,"name":"Free Appetizer"},{"code":"free-beer","count":4,"name":"Free Beer"},{"code":"happy-hours","count":4,"name":"Happy Hours"},{"code":"extra-200-eazypoints","count":2,"name":"Extra 200 EazyPoints"},{"code":"40-discount","count":1,"name":"40% Discount"}],"cuisines":[{"name":"North Indian","code":"north-indian"},{"name":"Chinese","code":"chinese"},{"name":"Modern Indian","code":"modern-indian"},{"name":"Italian","code":"italian"},{"name":"Cafe","code":"cafe"},{"name":"Pan Asian","code":"pan-asian"},{"name":"South Indian","code":"south-indian"},{"name":"Fast Food","code":"fast-food"},{"name":"Finger Food","code":"finger-food"},{"name":"Fusion","code":"fusion"},{"name":"Indian","code":"indian"},{"name":"Mughlai","code":"mughlai"},{"name":"European","code":"european"},{"name":"Lebanese","code":"lebanese"},{"name":"Greek","code":"Greek"},{"name":"Bengali","code":"bengali"},{"name":"Gujarati","code":"gujarati"},{"name":"Goan","code":"goan"},{"name":"Multicuisine","code":"multicuisine"}],"categories":[{"code":"casual-dining","count":4015,"name":"Casual Dining"},{"code":"other","count":1386,"name":"Other"},{"code":"takeaway","count":837,"name":"Takeaway"},{"code":"delivery-only","count":830,"name":"Delivery Only"},{"code":"cafe-bakery","count":789,"name":"Cafe\/Bakery"},{"code":"sweet-shop","count":515,"name":"Sweet Shop"},{"code":"bar-pub","count":466,"name":"Bar\/Pub"},{"code":"hotel-dining","count":199,"name":"Hotel Dining"},{"code":"luxury-dining","count":123,"name":"Luxury Dining"}],"cost_for_two":[{"code":"1-500","name":"Less than Rs. 500"},{"code":"500-1000","name":"Rs. 500 - Rs. 1000"},{"code":"1000-1500","name":"Rs. 1000 - Rs. 1500"},{"code":"1500-2000","name":"Rs. 1500 - Rs. 2000"},{"code":"2000-2500","name":"Rs. 2000 - Rs. 2500"},{"code":"2500-4000","name":"Rs. 2500 - Rs. 4000"},{"code":"4000-*","name":"Rs. 4000 and above"}]},"meta_info":{"logo":"","title":"10th Nov, Dinner","is_celebration":false},"quick_filters":{"mutually_exclusive":false,"items":[{"code":"prime","key":"prime","name":"Prime"},{"code":"buffet","key":"deal_types","name":"Buffet"},{"code":"fifty-percent-discounts","key":"buckets","name":"50% off"},{"code":"eazysave-deals","key":"buckets","name":"Prepaid"},{"code":"bar-pub","key":"categories","name":"Bars"},{"code":"north-indian","key":"cuisines","name":"North Indian"},{"code":"chinese","key":"cuisines","name":"Chinese"}]},"location_info":{"name":"Delhi NCR","code":"delhi-ncr","city_code":"delhi-ncr","city_name":"Delhi NCR","lat":28.627,"long":77.2045}}